\relax 
\@writefile{toc}{\contentsline {section}{\numberline {1}Lexical syntax}{1}}
\@writefile{toc}{\contentsline {subsection}{\numberline {1.1}Lexical tokens}{1}}
\@writefile{toc}{\contentsline {subsubsection}{\numberline {1.1.1}Unsigned decimal numbers}{1}}
